{
  "receipt": {
    "transactionDate": "2023-06-05T10:12:22.368-0500",
    "billablePages": 1,
    "loginId": "stansmithusdoj",
    "clientCode": "",
    "firmId": "",
    "search": "Court ID CM8BK; Chapter 15; Jurisdiction BK; Page: 1",
    "description": "Bankruptcy Case Search",
    "csoId": 4699219,
    "reportId": "cf0f411f-3026-4c0a-9187-3c3781d5c7a8",
    "searchFee": ".10"
  },
  "pageInfo": {
    "number": 0,
    "size": 54,
    "totalPages": 8,
    "totalElements": 380,
    "numberOfElements": 54,
    "first": true,
    "last": false
  },
  "content": [
    {
      "courtId": "cm8bk",
      "caseId": 127352,
      "caseYear": 2004,
      "caseNumber": 44449,
      "caseOffice": "4",
      "caseType": "bk",
      "caseTitle": "Flo Esterly and Neas Van Sampson",
      "dateFiled": "2005-05-04",
      "bankruptcyChapter": "15",
      "jointBankruptcyFlag": "n",
      "jurisdictionType": "Bankruptcy",
      "caseNumberFull": "4:2004bk44449"
    },
    {
      "courtId": "cm8bk",
      "caseId": 127761,
      "caseYear": 2006,
      "caseNumber": 1122,
      "caseOffice": "1",
      "caseType": "bk",
      "caseTitle": "Jennifer Millhouse",
      "dateFiled": "2006-03-27",
      "dateTermed": "2008-08-11",
      "dateDischarged": "2008-08-11",
      "bankruptcyChapter": "15",
      "dispositionMethod": "Standard Discharge",
      "jointBankruptcyFlag": "n",
      "jurisdictionType": "Bankruptcy",
      "effectiveDateClosed": "2008-08-11",
      "caseNumberFull": "1:2006bk01122"
    },
    {
      "courtId": "cm8bk",
      "caseId": 127827,
      "caseYear": 2006,
      "caseNumber": 1166,
      "caseOffice": "1",
      "caseType": "bk",
      "caseTitle": "Heather Anne Real",
      "dateFiled": "2006-04-26",
      "dateDischarged": "2007-10-26",
      "bankruptcyChapter": "15",
      "jointBankruptcyFlag": "n",
      "jurisdictionType": "Bankruptcy",
      "caseNumberFull": "1:2006bk01166"
    },
    {
      "courtId": "cm8bk",
      "caseId": 127828,
      "caseYear": 2006,
      "caseNumber": 1167,
      "caseOffice": "1",
      "caseType": "bk",
      "caseTitle": "Heather Anne Real",
      "dateFiled": "2006-04-26",
      "dateDischarged": "2007-10-26",
      "bankruptcyChapter": "15",
      "jointBankruptcyFlag": "n",
      "jurisdictionType": "Bankruptcy",
      "caseNumberFull": "1:2006bk01167"
    },
    {
      "courtId": "cm8bk",
      "caseId": 127836,
      "caseYear": 2006,
      "caseNumber": 1175,
      "caseOffice": "1",
      "caseType": "bk",
      "caseTitle": "James P. Tennor",
      "dateFiled": "2006-05-02",
      "dateDischarged": "2007-10-26",
      "bankruptcyChapter": "15",
      "jointBankruptcyFlag": "n",
      "jurisdictionType": "Bankruptcy",
      "caseNumberFull": "1:2006bk01175"
    },
    {
      "courtId": "cm8bk",
      "caseId": 127837,
      "caseYear": 2006,
      "caseNumber": 1176,
      "caseOffice": "1",
      "caseType": "bk",
      "caseTitle": "Tommy Testformiddlena tennor",
      "dateFiled": "2006-05-02",
      "dateDischarged": "2007-10-26",
      "bankruptcyChapter": "15",
      "jointBankruptcyFlag": "n",
      "jurisdictionType": "Bankruptcy",
      "caseNumberFull": "1:2006bk01176"
    },
    {
      "courtId": "cm8bk",
      "caseId": 127839,
      "caseYear": 2006,
      "caseNumber": 1178,
      "caseOffice": "1",
      "caseType": "bk",
      "caseTitle": "Heather Anne Real",
      "dateFiled": "2006-05-02",
      "dateDischarged": "2007-10-26",
      "bankruptcyChapter": "15",
      "jointBankruptcyFlag": "n",
      "jurisdictionType": "Bankruptcy",
      "caseNumberFull": "1:2006bk01178"
    },
    {
      "courtId": "cm8bk",
      "caseId": 127856,
      "caseYear": 2006,
      "caseNumber": 1190,
      "caseOffice": "1",
      "caseType": "bk",
      "caseTitle": "Millow H. Lee, Jr. and James P. Tennor",
      "dateFiled": "2006-05-10",
      "dateReopened": "2006-09-22",
      "dateDischarged": "2007-10-26",
      "bankruptcyChapter": "15",
      "jointBankruptcyFlag": "n",
      "jurisdictionType": "Bankruptcy",
      "caseNumberFull": "1:2006bk01190"
    },
    {
      "courtId": "cm8bk",
      "caseId": 127857,
      "caseYear": 2006,
      "caseNumber": 1191,
      "caseOffice": "4",
      "caseType": "bk",
      "caseTitle": "Richard Westebbe",
      "dateFiled": "2006-05-10",
      "bankruptcyChapter": "15",
      "jointBankruptcyFlag": "n",
      "jurisdictionType": "Bankruptcy",
      "caseNumberFull": "4:2006bk01191"
    },
    {
      "courtId": "cm8bk",
      "caseId": 127860,
      "caseYear": 2006,
      "caseNumber": 1194,
      "caseOffice": "1",
      "caseType": "bk",
      "caseTitle": "Heather Anne Real",
      "dateFiled": "2006-05-11",
      "dateDischarged": "2007-10-26",
      "bankruptcyChapter": "15",
      "jointBankruptcyFlag": "n",
      "jurisdictionType": "Bankruptcy",
      "caseNumberFull": "1:2006bk01194"
    },
    {
      "courtId": "cm8bk",
      "caseId": 127870,
      "caseYear": 2006,
      "caseNumber": 1200,
      "caseOffice": "1",
      "caseType": "bk",
      "caseTitle": "Heather Anne Real",
      "dateFiled": "2006-05-15",
      "dateTermed": "2006-06-20",
      "bankruptcyChapter": "15",
      "dispositionMethod": "Standard Discharge",
      "jointBankruptcyFlag": "n",
      "jurisdictionType": "Bankruptcy",
      "effectiveDateClosed": "2006-06-20",
      "caseNumberFull": "1:2006bk01200"
    },
    {
      "courtId": "cm8bk",
      "caseId": 128082,
      "caseYear": 2006,
      "caseNumber": 9990,
      "caseOffice": "1",
      "caseType": "bk",
      "caseTitle": "Heather Anne Real, Jr",
      "dateFiled": "2006-05-15",
      "dateTermed": "2006-06-20",
      "dateReopened": "2006-05-15",
      "bankruptcyChapter": "15",
      "dispositionMethod": "Standard Discharge",
      "jointBankruptcyFlag": "n",
      "jurisdictionType": "Bankruptcy",
      "effectiveDateClosed": "2006-06-20",
      "caseNumberFull": "1:2006bk09990"
    },
    {
      "courtId": "cm8bk",
      "caseId": 127875,
      "caseYear": 2006,
      "caseNumber": 1205,
      "caseOffice": "1",
      "caseType": "bk",
      "caseTitle": "Henry Vega",
      "dateFiled": "2006-05-16",
      "dateDischarged": "2007-10-26",
      "bankruptcyChapter": "15",
      "jointBankruptcyFlag": "n",
      "jurisdictionType": "Bankruptcy",
      "caseNumberFull": "1:2006bk01205"
    },
    {
      "courtId": "cm8bk",
      "caseId": 127893,
      "caseYear": 2006,
      "caseNumber": 1218,
      "caseOffice": "1",
      "caseType": "bk",
      "caseTitle": "Heather Anne Real",
      "dateFiled": "2006-05-22",
      "dateReopened": "2006-05-22",
      "dateDischarged": "2007-10-26",
      "bankruptcyChapter": "15",
      "jointBankruptcyFlag": "n",
      "jurisdictionType": "Bankruptcy",
      "caseNumberFull": "1:2006bk01218"
    },
    {
      "courtId": "cm8bk",
      "caseId": 127932,
      "caseYear": 2006,
      "caseNumber": 1218,
      "caseOffice": "4",
      "caseType": "bk",
      "caseTitle": "Heather Anne Real",
      "dateFiled": "2006-05-22",
      "dateReopened": "2006-05-22",
      "bankruptcyChapter": "15",
      "jointBankruptcyFlag": "n",
      "jurisdictionType": "Bankruptcy",
      "caseNumberFull": "4:2006bk01218"
    },
    {
      "courtId": "cm8bk",
      "caseId": 127904,
      "caseYear": 2006,
      "caseNumber": 1226,
      "caseOffice": "1",
      "caseType": "bk",
      "caseTitle": "Debbie Heath",
      "dateFiled": "2006-05-23",
      "dateDischarged": "2007-10-26",
      "bankruptcyChapter": "15",
      "jointBankruptcyFlag": "n",
      "jurisdictionType": "Bankruptcy",
      "caseNumberFull": "1:2006bk01226"
    },
    {
      "courtId": "cm8bk",
      "caseId": 127951,
      "caseYear": 2006,
      "caseNumber": 31100,
      "caseOffice": "4",
      "caseType": "bk",
      "caseTitle": "Drew kerrigan",
      "dateFiled": "2006-06-07",
      "bankruptcyChapter": "15",
      "jointBankruptcyFlag": "n",
      "jurisdictionType": "Bankruptcy",
      "caseNumberFull": "4:2006bk31100"
    },
    {
      "courtId": "cm8bk",
      "caseId": 127954,
      "caseYear": 2006,
      "caseNumber": 31102,
      "caseOffice": "4",
      "caseType": "bk",
      "caseTitle": "Ray Wa",
      "dateFiled": "2006-06-07",
      "bankruptcyChapter": "15",
      "jointBankruptcyFlag": "n",
      "jurisdictionType": "Bankruptcy",
      "caseNumberFull": "4:2006bk31102"
    },
    {
      "courtId": "cm8bk",
      "caseId": 127955,
      "caseYear": 2006,
      "caseNumber": 31103,
      "caseOffice": "4",
      "caseType": "bk",
      "caseTitle": "Harold gunter",
      "dateFiled": "2006-06-07",
      "bankruptcyChapter": "15",
      "jointBankruptcyFlag": "n",
      "jurisdictionType": "Bankruptcy",
      "caseNumberFull": "4:2006bk31103"
    },
    {
      "courtId": "cm8bk",
      "caseId": 127956,
      "caseYear": 2006,
      "caseNumber": 31104,
      "caseOffice": "4",
      "caseType": "bk",
      "caseTitle": "Mike D. Waters",
      "dateFiled": "2006-06-07",
      "bankruptcyChapter": "15",
      "jointBankruptcyFlag": "n",
      "jurisdictionType": "Bankruptcy",
      "caseNumberFull": "4:2006bk31104"
    },
    {
      "courtId": "cm8bk",
      "caseId": 127957,
      "caseYear": 2006,
      "caseNumber": 1251,
      "caseOffice": "1",
      "caseType": "bk",
      "caseTitle": "Victor Carson Dean",
      "dateFiled": "2006-06-07",
      "dateDischarged": "2007-10-26",
      "bankruptcyChapter": "15",
      "jointBankruptcyFlag": "n",
      "jurisdictionType": "Bankruptcy",
      "caseNumberFull": "1:2006bk01251"
    },
    {
      "courtId": "cm8bk",
      "caseId": 127958,
      "caseYear": 2006,
      "caseNumber": 1252,
      "caseOffice": "1",
      "caseType": "bk",
      "caseTitle": "Rose Lee and Smith's Orchard",
      "dateFiled": "2006-06-07",
      "dateDischarged": "2007-10-26",
      "bankruptcyChapter": "15",
      "jointBankruptcyFlag": "n",
      "jurisdictionType": "Bankruptcy",
      "caseNumberFull": "1:2006bk01252"
    }
  ]
}